%YAML 1.1
%TAG !u! tag:unity3d.com,2011:
--- !u!114 &11400000
MonoBehaviour:
  m_ObjectHideFlags: 0
  m_PrefabParentObject: {fileID: 0}
  m_PrefabInternal: {fileID: 0}
  m_GameObject: {fileID: 0}
  m_Enabled: 1
  m_EditorHideFlags: 0
  m_Script: {fileID: 11500000, guid: ded808fdda2944d5aa6d5e57da96f191, type: 3}
  m_Name: Vietnamese_QA_AASO
  m_EditorClassIdentifier: 
  language: 0
  audioAnimationInfoList:
    array:
    - description: Q_1&2_Correct_First_Second_Time
      audioClip: {fileID: 8300000, guid: ae33c7200cc7e4582ab639ae929df94d, type: 3}
      animationName: isCorrect
      subtitleTextboxIndex: 0
      subtitleInfoList:
        array:
        - subtiteText: "Ch\xEDnh x\xE1c! L\xE0m t\u1ED1t l\u1EAFm  C\xE2u h\u1ECFi
            ti\u1EBFp theo. "
          subtitleDisplayTime: 6.5
    - description: Q_3_Correct_First&Second_Time
      audioClip: {fileID: 8300000, guid: 31bb8958e04324c9b93a227fd71db810, type: 3}
      animationName: isCorrect
      subtitleTextboxIndex: 0
      subtitleInfoList:
        array:
        - subtiteText: "Ch\xEDnh x\xE1c! L\xE0m t\u1ED1t l\u1EAFm. B\u1EA1n \u0111\xE3
            ch\u1EE9ng minh b\u1EA1n c\xF3 th\u1EC3 c\u1EA9n th\u1EADn l\xE0m theo
            h\u01B0\u1EDBng d\u1EABn. H\xE3y c\u1ED1 g\u1EAFng ph\xE1t huy!"
          subtitleDisplayTime: 9
        - subtiteText: "B\xE2y gi\u1EDD b\u1EA1n c\xF3 th\u1EC3 ti\u1EBFp t\u1EE5c
            tr\u1EA3i nghi\u1EC7m. Khi b\u1EA1n \u0111\xE3 s\u1EB5n s\xE0ng \u0111\u1EC3
            b\u1EAFt \u0111\u1EA7u bu\u1ED5i ph\u1ECFng v\u1EA5n th\u1EED c\u1EE7a
            b\u1EA1n, ch\u1EC9 c\u1EA7n gi\u01A1 \u0111i\u1EC7n tho\u1EA1i l\xEAn
            ho\u1EB7c b\u1EA5m n\xFAt B\u1EAFt \u0111\u1EA7u \u1EDF b\xEAn d\u01B0\u1EDBi.
            Ch\xFAc b\u1EA1n may m\u1EAFn! "
          subtitleDisplayTime: 9
    - description: Q_1&2&3_Wrong_First_Time
      audioClip: {fileID: 8300000, guid: 62da5bb00054744109ccf998c7c8b73d, type: 3}
      animationName: isWrong
      subtitleTextboxIndex: 0
      subtitleInfoList:
        array:
        - subtiteText: "R\u1EA5t ti\u1EBFc, c\xE2u tr\u1EA3 l\u1EDDi n\xE0y kh\xF4ng
            \u0111\xFAng. Xin h\xE3y th\u1EED l\u1EA1i."
          subtitleDisplayTime: 4
    - description: Q_1&2_Wrong_Second_Time
      audioClip: {fileID: 8300000, guid: 80f50f2ae79184c44bc37f1906f72b32, type: 3}
      animationName: isWrong
      subtitleTextboxIndex: 0
      subtitleInfoList:
        array:
        - subtiteText: "R\u1EA5t ti\u1EBFc, c\xE2u tr\u1EA3 l\u1EDDi n\xE0y c\u0169ng
            kh\xF4ng ch\xEDnh x\xE1c. C\xE2u tr\u1EA3 l\u1EDDi \u0111\xFAng \u0111ang
            \u0111\u01B0\u1EE3c \u0111\xE1nh d\u1EA5u. H\xE3y ch\u1EAFc ch\u1EAFn
            r\u1EB1ng, b\u1EA1n \u0111\u1ECDc ho\u1EB7c nghe k\u1EF9 h\u01B0\u1EDBng
            d\u1EABn. Ch\xFAng kh\xF4ng ph\u1EA3i \u0111\u1EC3 gi\u1EDBi h\u1EA1n
            vi\u1EC7c ch\xFAng ta l\xE0m,"
          subtitleDisplayTime: 9
        - subtiteText: "m\xE0 \u0111\u1EC3 lo\u1EA1i b\u1ECF c\xE1c nh\u1EA7m l\u1EABn
            v\xE0 gi\xFAp ch\xFAng ta th\xE0nh c\xF4ng. "
          subtitleDisplayTime: 5
        - subtiteText: " L\xE0m theo ch\u1EC9 d\u1EABn l\xE0 m\u1ED9t k\u1EF9 n\u0103ng
            quan tr\u1ECDng \u0111\u1EC3 th\xE0nh c\xF4ng tr\xEAn th\u1ECB tr\u01B0\u1EDDng
            lao \u0111\u1ED9ng, v\xE0 l\xE0 m\u1ED9t y\u1EBFu t\u1ED1 quan tr\u1ECDng
            \u0111\u1EC3 ph\u1ECFng v\u1EA5n th\xE0nh c\xF4ng."
          subtitleDisplayTime: 8
    - description: Q_3_Wrong_Second_Time
      audioClip: {fileID: 8300000, guid: 3676401ad88d042f6a79729db555dea1, type: 3}
      animationName: isWrong
      subtitleTextboxIndex: 0
      subtitleInfoList:
        array:
        - subtiteText: "R\u1EA5t ti\u1EBFc, c\xE2u tr\u1EA3 l\u1EDDi n\xE0y c\u0169ng
            kh\xF4ng ch\xEDnh x\xE1c. C\xE2u tr\u1EA3 l\u1EDDi \u0111\xFAng \u0111ang
            \u0111\u01B0\u1EE3c \u0111\xE1nh d\u1EA5u."
          subtitleDisplayTime: 4
        - subtiteText: "H\xE3y ch\u1EAFc ch\u1EAFn r\u1EB1ng, b\u1EA1n \u0111\u1ECDc
            ho\u1EB7c nghe k\u1EF9 h\u01B0\u1EDBng d\u1EABn. Ch\xFAng kh\xF4ng ph\u1EA3i
            \u0111\u1EC3 gi\u1EDBi h\u1EA1n vi\u1EC7c ch\xFAng ta l\xE0m, m\xE0 \u0111\u1EC3
            lo\u1EA1i b\u1ECF c\xE1c nh\u1EA7m l\u1EABn v\xE0 gi\xFAp ch\xFAng ta
            th\xE0nh c\xF4ng."
          subtitleDisplayTime: 9
        - subtiteText: "L\xE0m theo ch\u1EC9 d\u1EABn l\xE0 m\u1ED9t k\u1EF9 n\u0103ng
            quan tr\u1ECDng \u0111\u1EC3 th\xE0nh c\xF4ng tr\xEAn th\u1ECB tr\u01B0\u1EDDng
            lao \u0111\u1ED9ng,"
          subtitleDisplayTime: 4
        - subtiteText: "v\xE0 l\xE0 m\u1ED9t y\u1EBFu t\u1ED1 quan tr\u1ECDng \u0111\u1EC3
            ph\u1ECFng v\u1EA5n th\xE0nh c\xF4ng."
          subtitleDisplayTime: 4
        - subtiteText: "B\xE2y gi\u1EDD b\u1EA1n c\xF3 th\u1EC3 ti\u1EBFp t\u1EE5c
            tr\u1EA3i nghi\u1EC7m. Khi b\u1EA1n \u0111\xE3 s\u1EB5n s\xE0ng bu\u1ED5i
            ph\u1ECFng v\u1EA5n th\u1EED c\u1EE7a m\xECnh, ch\u1EC9 c\u1EA7n gi\u01A1
            \u0111i\u1EC7n tho\u1EA1i l\xEAn ho\u1EB7c nh\u1EA5n n\xFAt b\u1EAFt \u0111\u1EA7u
            b\xEAn d\u01B0\u1EDBi. Ch\xFAc may m\u1EAFn!"
          subtitleDisplayTime: 11
