%YAML 1.1
%TAG !u! tag:unity3d.com,2011:
--- !u!114 &11400000
MonoBehaviour:
  m_ObjectHideFlags: 0
  m_PrefabParentObject: {fileID: 0}
  m_PrefabInternal: {fileID: 0}
  m_GameObject: {fileID: 0}
  m_Enabled: 1
  m_EditorHideFlags: 0
  m_Script: {fileID: 11500000, guid: 1d42752ae62b22b47aef2032ceee5689, type: 3}
  m_Name: Vietnamese_Menu_Text
  m_EditorClassIdentifier: 
  language: 1
  menuWindowList:
    array:
    - windowName: MainMenu_1
      textInfoList:
        array:
        - textInfo: "\u1EE8ng d\u1EE5ng n\xE0y s\u1EED d\u1EE5ng"
        - textInfo: "c\xF4ng ngh\u1EC7 Th\u1EF1c t\u1EBF t\u0103ng c\u01B0\u1EDDng
            (AR)"
        - textInfo: "Khi \u0111\u01B0\u1EE3c h\u01B0\u1EDBng d\u1EABn, h\xE3y di chu\u1ED9t
            qua \u0111i\u1EC3m \u0111\xE1nh d\u1EA5u \u0111\u1EC3 xem BECA xu\u1EA5t
            hi\u1EC7n tr\xEAn m\xE0n h\xECnh thi\u1EBFt b\u1ECB di \u0111\u1ED9ng
            c\u1EE7a b\u1EA1n"
        - textInfo: "\u1EE8ng d\u1EE5ng n\xE0y s\u1EED d\u1EE5ng"
        - textInfo: "th\u1EF1c t\u1EBF \u1EA3o (VR)"
        - textInfo: "Khi \u0111\u01B0\u1EE3c h\u01B0\u1EDBng d\u1EABn, h\xE3y \u0111\u1EB7t
            \u0111i\u1EC7n tho\u1EA1i di \u0111\u1ED9ng c\u1EE7a b\u1EA1n v\xE0o k\xEDnh
            Th\u1EF1c t\u1EBF \u1EA3o (VR) v\xE0 \u0111\u1EB7t tr\u01B0\u1EDBc m\u1EAFt
            \u0111\u1EC3 xem \u1EDF 360 \u0111\u1ED9."
        - textInfo: "B\u1EAFt \u0111\u1EA7u "
        - textInfo: "Ch\u1EA5p nh\u1EADn \u0110i\u1EC1u kho\u1EA3n & \u0110i\u1EC1u
            ki\u1EC7n"
        - textInfo: "Xem \u0110i\u1EC1u kho\u1EA3n & \u0110i\u1EC1u ki\u1EC7n"
    - windowName: AR_1
      textInfoList:
        array:
        - textInfo: "Tr\u1ECF m\xE1y \u1EA3nh c\u1EE7a b\u1EA1n qua \u0111i\u1EC3m
            \u0111\xE1nh d\u1EA5u"
    - windowName: Questions_1
      textInfoList:
        array:
        - textInfo: "B\u1EA1n c\xF3 tham gia d\u1EF1 \xE1n K\u1EF9 N\u0103ng Th\xE0nh
            C\xF4ng c\u1EE7a t\u1ED5 ch\u1EE9c C\u1EE9u Tr\u1EE3 Tr\u1EBB Em t\u1ED5
            ch\u1EE9c kh\xF4ng?"
        - textInfo: "C\xF3 "
        - textInfo: "Kh\xF4ng"
        - textInfo: " K\u1EBF ti\u1EBFp"
    - windowName: Questions_2
      textInfoList:
        array:
        - textInfo: "Gi\u1EDBi t\xEDnh c\u1EE7a b\u1EA1n l\xE0 g\xEC?"
        - textInfo: Nam
        - textInfo: "N\u1EEF"
        - textInfo: "Kh\xE1c"
        - textInfo: " K\u1EBF ti\u1EBFp"
    - windowName: Questions_3
      textInfoList:
        array:
        - textInfo: "\u0110\u1ED9 tu\u1ED5i c\u1EE7a b\u1EA1n?"
        - textInfo: <18
        - textInfo: 18-24
        - textInfo: 25-34
        - textInfo: '>34'
        - textInfo: " K\u1EBF ti\u1EBFp"
    - windowName: Questions_4
      textInfoList:
        array:
        - textInfo: "\"Tr\xECnh \u0111\u1ED9 h\u1ECDc v\u1EA5n cao nh\u1EA5t c\u1EE7a
            b\u1EA1n l\xE0 g\xEC?  \""
        - textInfo: "Ti\u1EC3u h\u1ECDc"
        - textInfo: "D\u1EA1y ngh\u1EC1 s\u01A1 c\u1EA5p"
        - textInfo: "Trung h\u1ECDc c\u01A1 s\u1EDF"
        - textInfo: "Trung c\u1EA5p ngh\u1EC1"
        - textInfo: "Trung h\u1ECDc"
        - textInfo: "Cao \u0111\u1EB3ng"
        - textInfo: "K\u1EBF ti\u1EBFp"
    - windowName: Questions_5
      textInfoList:
        array:
        - textInfo: "T\xECnh tr\u1EA1ng ngh\u1EC1 nghi\u1EC7p c\u1EE7a b\u1EA1n hi\u1EC7n
            t\u1EA1i l\xE0 g\xEC?"
        - textInfo: "Sinh vi\xEAn"
        - textInfo: "\u0110\xE3 c\xF3 vi\u1EC7c l\xE0m"
        - textInfo: "T\u1EF1 l\xE0m ch\u1EE7"
        - textInfo: "Th\u1EA5t nghi\u1EC7p v\xE0 t\xECm vi\u1EC7c l\xE0m"
        - textInfo: "Th\u1EA5t nghi\u1EC7p v\xE0 kh\xF4ng t\xECm vi\u1EC7c"
        - textInfo: "Kh\xF4ng th\u1EC3 l\xE0m vi\u1EC7c"
        - textInfo: "Kh\xF4ng th\u1EC3 l\xE0m vi\u1EC7c"
    - windowName: Experience_1
      textInfoList:
        array:
        - textInfo: "Tr\u1ECF m\xE1y \u1EA3nh c\u1EE7a b\u1EA1n qua \u0111i\u1EC3m
            \u0111\xE1nh d\u1EA5u"
        - textInfo: "\u0110\xE0o t\u1EA1o ph\u1ECFng v\u1EA5n"
        - textInfo: "K\u0129 n\u0103ng giao ti\u1EBFp"
        - textInfo: "Kh\xE1m ph\xE1 s\u1EF1 nghi\u1EC7p"
